"000010","CHRISTINE","I","HAAS","A00","3978",19650101
"000020","MICHAEL","L","THOMPSON","B01","3476",19731010
"000030","SALLY","A","KWAN","C01","4738",19750405
"000050","JOHN","B","GEYER","E01","6789",19490817
"000060","IRVING","F","STERN","D11","6423",19730914
"000070","EVA","D","PULASKI","D21","7831",19800930
"000090","EILEEN","W","HENDERSON","E11","5498",19700815
"000100","THEODORE","Q","SPENSER","E21","0972",19800619
"000110","VINCENZO","G","LUCCHESSI","A00","3490",19580516
"000120","SEAN"," ","O'CONNELL","A00","2167",19631205
"000130","DOLORES","M","QUINTANA","C01","4578",19710728
"000140","HEATHER","A","NICHOLLS","C01","1793",19761215
"000150","BRUCE"," ","ADAMSON","D11","4510",19720212
"000160","ELIZABETH","R","PIANKA","D11","3782",19771011
"000170","MASATOSHI","J","YOSHIMURA","D11","2890",19780915
"000180","MARILYN","S","SCOUTTEN","D11","1682",19730707
"000190","JAMES","H","WALKER","D11","2986",19740726
"000200","DAVID"," ","BROWN","D11","4501",19660303
"000210","WILLIAM","T","JONES","D11","0942",19790411
"000220","JENNIFER","K","LUTZ","D11","0672",19680829
"000230","JAMES","J","JEFFERSON","D21","2094",19661121
"000240","SALVATORE","M","MARINO","D21","3780",19791205
"000250","DANIEL","S","SMITH","D21","0961",19691030
"000260","SYBIL","P","JOHNSON","D21","8953",19750911
"000270","MARIA","L","PEREZ","D21","9001",19800930
"000280","ETHEL","R","SCHNEIDER","E11","8997",19670324
"000290","JOHN","R","PARKER","E11","4502",19800530
"000300","PHILIP","X","SMITH","E11","2095",19720619
"000310","MAUDE","F","SETRIGHT","E11","3332",19640912
"000320","RAMLAL","V","MEHTA","E21","9990",19650707
"000330","WING"," ","LEE","E21","2103",19760223
"000340","JASON","R","GOUNOT","E21","5698",19470505